order id,npm,fullname,item id,item name,irem price,quantity,subtotal,transaction id
,2019101631,Muhammad Faturrohman Sugiyarto,,STELLA AIR FRESHENER ALL IN ONE APPLE PCK 70/42g,,1,12000,279
,2019101631,Muhammad Faturrohman Sugiyarto,,ABC BATTERY ALKALINE AAA/LR03/2'S MILLENNIUM PWR PCK,,1,19000,277
,2019101648,Rayhan Ramdhany Hanaputra,,ABC BATTERY ALKALINE AAA/LR03/2'S MILLENNIUM PWR PCK,,1,19000,275
,2019101648,Rayhan Ramdhany Hanaputra,,CHARM PEMBALUT SAFE NIGHT 10'S WING PCK 29cm,,1,9500,275
,2019101631,Muhammad Faturrohman Sugiyarto,,AddItem,,2,42,271
