transaction id,npm,fullname,value,date
279,2019101631,Muhammad Faturrohman Sugiyarto,12000,2021-10-27 08:51:19
277,2019101631,Muhammad Faturrohman Sugiyarto,19000,2021-10-26 12:24:11
275,2019101648,Rayhan Ramdhany Hanaputra,28500,2021-10-26 10:35:02
271,2019101631,Muhammad Faturrohman Sugiyarto,42,2021-10-25 14:02:21
